EESchema Schematic File Version 4
LIBS:Sewable_ESP32-cache
EELAYER 29 0
EELAYER END
$Descr A4 11693 8268
encoding utf-8
Sheet 2 2
Title ""
Date ""
Rev ""
Comp ""
Comment1 ""
Comment2 ""
Comment3 ""
Comment4 ""
$EndDescr
Text GLabel 1050 3250 1    50   Input ~ 0
IO12
$Comp
L Switch:SW_SPST SW?
U 1 1 5E08AC82
P 1400 3300
AR Path="/5E08AC82" Ref="SW?"  Part="1" 
AR Path="/5E03BFDE/5E08AC82" Ref="SW3"  Part="1" 
F 0 "SW3" H 1400 3535 50  0000 C CNN
F 1 "SW_SPST" H 1400 3444 50  0000 C CNN
F 2 "Button_Switch_SMD:SW_SPST_EVQP2" H 1400 3300 50  0001 C CNN
F 3 "~" H 1400 3300 50  0001 C CNN
F 4 "P16765CT-ND" H 1400 3300 50  0001 C CNN "SKU"
	1    1400 3300
	1    0    0    -1  
$EndComp
Wire Wire Line
	1450 1100 1500 1100
$Comp
L Device:R R?
U 1 1 5E08AC8A
P 1650 1100
AR Path="/5E08AC8A" Ref="R?"  Part="1" 
AR Path="/5E03BFDE/5E08AC8A" Ref="R10"  Part="1" 
F 0 "R10" H 1580 1054 50  0000 R CNN
F 1 "62R" H 1580 1145 50  0000 R CNN
F 2 "Resistor_SMD:R_1206_3216Metric_Pad1.42x1.75mm_HandSolder" V 1580 1100 50  0001 C CNN
F 3 "~" H 1650 1100 50  0001 C CNN
F 4 "311-62.0FRCT-ND" H 1650 1100 50  0001 C CNN "SKU"
	1    1650 1100
	0    1    1    0   
$EndComp
Wire Wire Line
	1800 1100 1850 1100
Wire Wire Line
	1050 1100 1100 1100
$Comp
L power:GND #PWR?
U 1 1 5E08AC92
P 1900 1100
AR Path="/5E08AC92" Ref="#PWR?"  Part="1" 
AR Path="/5E03BFDE/5E08AC92" Ref="#PWR036"  Part="1" 
F 0 "#PWR036" H 1900 850 50  0001 C CNN
F 1 "GND" H 1905 927 50  0000 C CNN
F 2 "" H 1900 1100 50  0001 C CNN
F 3 "" H 1900 1100 50  0001 C CNN
	1    1900 1100
	0    -1   -1   0   
$EndComp
Text GLabel 1050 1100 0    50   Input ~ 0
IO19
$Comp
L Device:LED D?
U 1 1 5E08AC9A
P 1300 1100
AR Path="/5E08AC9A" Ref="D?"  Part="1" 
AR Path="/5E03BFDE/5E08AC9A" Ref="D4"  Part="1" 
F 0 "D4" V 1350 1000 50  0000 R CNN
F 1 "LED_GREEN" V 1250 1000 50  0000 R CNN
F 2 "LED_SMD:LED_1206_3216Metric_Pad1.42x1.75mm_HandSolder" H 1300 1100 50  0001 C CNN
F 3 "~" H 1300 1100 50  0001 C CNN
F 4 "160-1169-1-ND" H 1300 1100 50  0001 C CNN "SKU"
	1    1300 1100
	-1   0    0    1   
$EndComp
Wire Wire Line
	1700 3300 1600 3300
Wire Wire Line
	1000 3300 1050 3300
$Comp
L Switch:SW_DPDT_x2 SW?
U 1 1 5E08ACB4
P 3100 3300
AR Path="/5E08ACB4" Ref="SW?"  Part="1" 
AR Path="/5E03BFDE/5E08ACB4" Ref="SW4"  Part="1" 
F 0 "SW4" H 3100 3585 50  0000 C CNN
F 1 "SW_DPDT_x2" H 3100 3494 50  0000 C CNN
F 2 "ESP32_footprints:JS202011SCQN" H 3100 3300 50  0001 C CNN
F 3 "~" H 3100 3300 50  0001 C CNN
F 4 "401-2002-1-ND" H 3100 3300 50  0001 C CNN "SKU"
	1    3100 3300
	1    0    0    -1  
$EndComp
$Comp
L power:GND #PWR?
U 1 1 5E08ACBA
P 3500 3100
AR Path="/5E08ACBA" Ref="#PWR?"  Part="1" 
AR Path="/5E03BFDE/5E08ACBA" Ref="#PWR038"  Part="1" 
F 0 "#PWR038" H 3500 2850 50  0001 C CNN
F 1 "GND" H 3505 2927 50  0000 C CNN
F 2 "" H 3500 3100 50  0001 C CNN
F 3 "" H 3500 3100 50  0001 C CNN
	1    3500 3100
	1    0    0    1   
$EndComp
Text GLabel 2800 3200 1    50   Input ~ 0
IO13
Wire Wire Line
	2700 3300 2800 3300
$Comp
L fab:NMOSFETSOT23 T?
U 1 1 5E08ACC8
P 5700 3250
AR Path="/5E08ACC8" Ref="T?"  Part="1" 
AR Path="/5E03BFDE/5E08ACC8" Ref="T1"  Part="1" 
F 0 "T1" H 5808 3292 45  0000 L CNN
F 1 "NMOSFETSOT23" H 5808 3208 45  0000 L CNN
F 2 "fab:fab-SOT-23" H 5730 3400 20  0001 C CNN
F 3 "" H 5700 3250 50  0001 C CNN
F 4 "NDS355ANCT-ND" H 5700 3250 50  0001 C CNN "SKU"
	1    5700 3250
	1    0    0    -1  
$EndComp
Text GLabel 5300 3350 0    50   Input ~ 0
IO27
$Comp
L power:GND #PWR?
U 1 1 5E08ACCF
P 5700 3600
AR Path="/5E08ACCF" Ref="#PWR?"  Part="1" 
AR Path="/5E03BFDE/5E08ACCF" Ref="#PWR044"  Part="1" 
F 0 "#PWR044" H 5700 3350 50  0001 C CNN
F 1 "GND" H 5705 3427 50  0000 C CNN
F 2 "" H 5700 3600 50  0001 C CNN
F 3 "" H 5700 3600 50  0001 C CNN
	1    5700 3600
	-1   0    0    -1  
$EndComp
$Comp
L Device:D_Photo D?
U 1 1 5E08ACD5
P 7650 3500
AR Path="/5E08ACD5" Ref="D?"  Part="1" 
AR Path="/5E03BFDE/5E08ACD5" Ref="D11"  Part="1" 
F 0 "D11" H 7600 3284 50  0000 C CNN
F 1 "D_Photo" H 7600 3375 50  0000 C CNN
F 2 "ESP32_footprints:ALS-PT19" H 7600 3500 50  0001 C CNN
F 3 "http://ww1.microchip.com/downloads/en/AppNotes/01311a.pdf" H 7600 3500 50  0001 C CNN
F 4 "1080-1244-1-ND" H 7650 3500 50  0001 C CNN "SKU"
	1    7650 3500
	-1   0    0    1   
$EndComp
$Comp
L power:+3.3V #PWR?
U 1 1 5E08ACDB
P 7350 3400
AR Path="/5E08ACDB" Ref="#PWR?"  Part="1" 
AR Path="/5E03BFDE/5E08ACDB" Ref="#PWR051"  Part="1" 
F 0 "#PWR051" H 7350 3250 50  0001 C CNN
F 1 "+3.3V" H 7365 3573 50  0000 C CNN
F 2 "" H 7350 3400 50  0001 C CNN
F 3 "" H 7350 3400 50  0001 C CNN
	1    7350 3400
	1    0    0    -1  
$EndComp
Text GLabel 8000 3400 1    50   Input ~ 0
IO14
Wire Wire Line
	7350 3500 7350 3400
Wire Wire Line
	7350 3500 7550 3500
Wire Wire Line
	8000 3400 8000 3500
Wire Wire Line
	7850 3500 8000 3500
Wire Wire Line
	8500 3500 8400 3500
Wire Wire Line
	2800 3200 2800 3300
Connection ~ 2800 3300
Wire Wire Line
	2800 3300 2900 3300
Wire Wire Line
	3300 3200 3500 3200
Wire Wire Line
	1050 3250 1050 3300
Connection ~ 1050 3300
Wire Wire Line
	1050 3300 1200 3300
Wire Wire Line
	1750 3300 1700 3300
Wire Wire Line
	1700 3300 1700 3250
Connection ~ 1700 3300
$Comp
L power:GND #PWR?
U 1 1 5E08AD18
P 1700 3250
AR Path="/5E08AD18" Ref="#PWR?"  Part="1" 
AR Path="/5E03BFDE/5E08AD18" Ref="#PWR035"  Part="1" 
F 0 "#PWR035" H 1700 3000 50  0001 C CNN
F 1 "GND" H 1705 3077 50  0000 C CNN
F 2 "" H 1700 3250 50  0001 C CNN
F 3 "" H 1700 3250 50  0001 C CNN
	1    1700 3250
	1    0    0    1   
$EndComp
Wire Wire Line
	3500 3100 3500 3200
Connection ~ 3500 3200
Wire Wire Line
	3500 3200 3650 3200
$Comp
L LED:WS2812B D?
U 1 1 5E08AD44
P 6250 1500
AR Path="/5E08AD44" Ref="D?"  Part="1" 
AR Path="/5E03BFDE/5E08AD44" Ref="D9"  Part="1" 
F 0 "D9" H 6594 1546 50  0000 L CNN
F 1 "WS2812B" H 6594 1455 50  0000 L CNN
F 2 "LED_SMD:LED_WS2812B_PLCC4_5.0x5.0mm_P3.2mm" H 6300 1200 50  0001 L TNN
F 3 "https://cdn-shop.adafruit.com/datasheets/WS2812B.pdf" H 6350 1125 50  0001 L TNN
	1    6250 1500
	1    0    0    -1  
$EndComp
$Comp
L power:GND #PWR?
U 1 1 5E08AD4A
P 6250 1150
AR Path="/5E08AD4A" Ref="#PWR?"  Part="1" 
AR Path="/5E03BFDE/5E08AD4A" Ref="#PWR046"  Part="1" 
F 0 "#PWR046" H 6250 900 50  0001 C CNN
F 1 "GND" H 6255 977 50  0000 C CNN
F 2 "" H 6250 1150 50  0001 C CNN
F 3 "" H 6250 1150 50  0001 C CNN
	1    6250 1150
	-1   0    0    1   
$EndComp
$Comp
L LED:WS2812B D?
U 1 1 5E08AD79
P 7250 1500
AR Path="/5E08AD79" Ref="D?"  Part="1" 
AR Path="/5E03BFDE/5E08AD79" Ref="D10"  Part="1" 
F 0 "D10" H 7594 1546 50  0000 L CNN
F 1 "WS2812B" H 7594 1455 50  0000 L CNN
F 2 "LED_SMD:LED_WS2812B_PLCC4_5.0x5.0mm_P3.2mm" H 7300 1200 50  0001 L TNN
F 3 "https://cdn-shop.adafruit.com/datasheets/WS2812B.pdf" H 7350 1125 50  0001 L TNN
	1    7250 1500
	1    0    0    -1  
$EndComp
$Comp
L power:GND #PWR?
U 1 1 5E08AD7F
P 7250 1150
AR Path="/5E08AD7F" Ref="#PWR?"  Part="1" 
AR Path="/5E03BFDE/5E08AD7F" Ref="#PWR049"  Part="1" 
F 0 "#PWR049" H 7250 900 50  0001 C CNN
F 1 "GND" H 7255 977 50  0000 C CNN
F 2 "" H 7250 1150 50  0001 C CNN
F 3 "" H 7250 1150 50  0001 C CNN
	1    7250 1150
	-1   0    0    1   
$EndComp
$Comp
L LED:WS2812B D?
U 1 1 5E08ADAD
P 8250 1500
AR Path="/5E08ADAD" Ref="D?"  Part="1" 
AR Path="/5E03BFDE/5E08ADAD" Ref="D12"  Part="1" 
F 0 "D12" H 8594 1546 50  0000 L CNN
F 1 "WS2812B" H 8594 1455 50  0000 L CNN
F 2 "LED_SMD:LED_WS2812B_PLCC4_5.0x5.0mm_P3.2mm" H 8300 1200 50  0001 L TNN
F 3 "https://cdn-shop.adafruit.com/datasheets/WS2812B.pdf" H 8350 1125 50  0001 L TNN
	1    8250 1500
	1    0    0    -1  
$EndComp
$Comp
L power:GND #PWR?
U 1 1 5E08ADB3
P 8250 1150
AR Path="/5E08ADB3" Ref="#PWR?"  Part="1" 
AR Path="/5E03BFDE/5E08ADB3" Ref="#PWR053"  Part="1" 
F 0 "#PWR053" H 8250 900 50  0001 C CNN
F 1 "GND" H 8255 977 50  0000 C CNN
F 2 "" H 8250 1150 50  0001 C CNN
F 3 "" H 8250 1150 50  0001 C CNN
	1    8250 1150
	-1   0    0    1   
$EndComp
Connection ~ 1100 1100
Wire Wire Line
	1100 1100 1150 1100
Connection ~ 1850 1100
Wire Wire Line
	1850 1100 1900 1100
Wire Wire Line
	3150 1100 3200 1100
$Comp
L Device:R R?
U 1 1 5E08ADF6
P 3350 1100
AR Path="/5E08ADF6" Ref="R?"  Part="1" 
AR Path="/5E03BFDE/5E08ADF6" Ref="R12"  Part="1" 
F 0 "R12" H 3280 1054 50  0000 R CNN
F 1 "62R" H 3280 1145 50  0000 R CNN
F 2 "Resistor_SMD:R_1206_3216Metric_Pad1.42x1.75mm_HandSolder" V 3280 1100 50  0001 C CNN
F 3 "~" H 3350 1100 50  0001 C CNN
F 4 "311-62.0FRCT-ND" H 3350 1100 50  0001 C CNN "SKU"
	1    3350 1100
	0    1    1    0   
$EndComp
Wire Wire Line
	3500 1100 3550 1100
Wire Wire Line
	2750 1100 2800 1100
$Comp
L power:GND #PWR?
U 1 1 5E08ADFE
P 3600 1100
AR Path="/5E08ADFE" Ref="#PWR?"  Part="1" 
AR Path="/5E03BFDE/5E08ADFE" Ref="#PWR039"  Part="1" 
F 0 "#PWR039" H 3600 850 50  0001 C CNN
F 1 "GND" H 3605 927 50  0000 C CNN
F 2 "" H 3600 1100 50  0001 C CNN
F 3 "" H 3600 1100 50  0001 C CNN
	1    3600 1100
	0    -1   -1   0   
$EndComp
Text GLabel 2750 1100 0    50   Input ~ 0
IO18
$Comp
L Device:LED D?
U 1 1 5E08AE06
P 3000 1100
AR Path="/5E08AE06" Ref="D?"  Part="1" 
AR Path="/5E03BFDE/5E08AE06" Ref="D6"  Part="1" 
F 0 "D6" V 3050 1000 50  0000 R CNN
F 1 "LED_GREEN" V 2950 1000 50  0000 R CNN
F 2 "LED_SMD:LED_1206_3216Metric_Pad1.42x1.75mm_HandSolder" H 3000 1100 50  0001 C CNN
F 3 "~" H 3000 1100 50  0001 C CNN
F 4 "160-1169-1-ND" H 3000 1100 50  0001 C CNN "SKU"
	1    3000 1100
	-1   0    0    1   
$EndComp
Connection ~ 2800 1100
Wire Wire Line
	2800 1100 2850 1100
Connection ~ 3550 1100
Wire Wire Line
	3550 1100 3600 1100
Wire Wire Line
	1450 2000 1500 2000
$Comp
L Device:R R?
U 1 1 5E08AE1E
P 1650 2000
AR Path="/5E08AE1E" Ref="R?"  Part="1" 
AR Path="/5E03BFDE/5E08AE1E" Ref="R11"  Part="1" 
F 0 "R11" H 1580 1954 50  0000 R CNN
F 1 "62R" H 1580 2045 50  0000 R CNN
F 2 "Resistor_SMD:R_1206_3216Metric_Pad1.42x1.75mm_HandSolder" V 1580 2000 50  0001 C CNN
F 3 "~" H 1650 2000 50  0001 C CNN
F 4 "311-62.0FRCT-ND" H 1650 2000 50  0001 C CNN "SKU"
	1    1650 2000
	0    1    1    0   
$EndComp
$Comp
L power:GND #PWR?
U 1 1 5E08AE26
P 1900 2000
AR Path="/5E08AE26" Ref="#PWR?"  Part="1" 
AR Path="/5E03BFDE/5E08AE26" Ref="#PWR037"  Part="1" 
F 0 "#PWR037" H 1900 1750 50  0001 C CNN
F 1 "GND" H 1905 1827 50  0000 C CNN
F 2 "" H 1900 2000 50  0001 C CNN
F 3 "" H 1900 2000 50  0001 C CNN
	1    1900 2000
	0    -1   -1   0   
$EndComp
Text GLabel 1050 2000 0    50   Input ~ 0
IO17
$Comp
L Device:LED D?
U 1 1 5E08AE2E
P 1300 2000
AR Path="/5E08AE2E" Ref="D?"  Part="1" 
AR Path="/5E03BFDE/5E08AE2E" Ref="D5"  Part="1" 
F 0 "D5" V 1350 1900 50  0000 R CNN
F 1 "LED_GREEN" V 1250 1900 50  0000 R CNN
F 2 "LED_SMD:LED_1206_3216Metric_Pad1.42x1.75mm_HandSolder" H 1300 2000 50  0001 C CNN
F 3 "~" H 1300 2000 50  0001 C CNN
F 4 "160-1169-1-ND" H 1300 2000 50  0001 C CNN "SKU"
	1    1300 2000
	-1   0    0    1   
$EndComp
Wire Wire Line
	3150 2000 3200 2000
$Comp
L Device:R R?
U 1 1 5E08AE46
P 3350 2000
AR Path="/5E08AE46" Ref="R?"  Part="1" 
AR Path="/5E03BFDE/5E08AE46" Ref="R13"  Part="1" 
F 0 "R13" H 3280 1954 50  0000 R CNN
F 1 "62R" H 3280 2045 50  0000 R CNN
F 2 "Resistor_SMD:R_1206_3216Metric_Pad1.42x1.75mm_HandSolder" V 3280 2000 50  0001 C CNN
F 3 "~" H 3350 2000 50  0001 C CNN
F 4 "311-62.0FRCT-ND" H 3350 2000 50  0001 C CNN "SKU"
	1    3350 2000
	0    1    1    0   
$EndComp
Wire Wire Line
	3500 2000 3550 2000
Wire Wire Line
	2750 2000 2800 2000
$Comp
L power:GND #PWR?
U 1 1 5E08AE4E
P 3600 2000
AR Path="/5E08AE4E" Ref="#PWR?"  Part="1" 
AR Path="/5E03BFDE/5E08AE4E" Ref="#PWR040"  Part="1" 
F 0 "#PWR040" H 3600 1750 50  0001 C CNN
F 1 "GND" H 3605 1827 50  0000 C CNN
F 2 "" H 3600 2000 50  0001 C CNN
F 3 "" H 3600 2000 50  0001 C CNN
	1    3600 2000
	0    -1   -1   0   
$EndComp
Text GLabel 2750 2000 0    50   Input ~ 0
IO16
$Comp
L Device:LED D?
U 1 1 5E08AE56
P 3000 2000
AR Path="/5E08AE56" Ref="D?"  Part="1" 
AR Path="/5E03BFDE/5E08AE56" Ref="D7"  Part="1" 
F 0 "D7" V 3050 1900 50  0000 R CNN
F 1 "LED_GREEN" V 2950 1900 50  0000 R CNN
F 2 "LED_SMD:LED_1206_3216Metric_Pad1.42x1.75mm_HandSolder" H 3000 2000 50  0001 C CNN
F 3 "~" H 3000 2000 50  0001 C CNN
F 4 "160-1169-1-ND" H 3000 2000 50  0001 C CNN "SKU"
	1    3000 2000
	-1   0    0    1   
$EndComp
Connection ~ 2800 2000
Wire Wire Line
	2800 2000 2850 2000
Connection ~ 3550 2000
Wire Wire Line
	3550 2000 3600 2000
$Comp
L power:+3.3V #PWR?
U 1 1 5E08AE7C
P 6150 3050
AR Path="/5E08AE7C" Ref="#PWR?"  Part="1" 
AR Path="/5E03BFDE/5E08AE7C" Ref="#PWR045"  Part="1" 
F 0 "#PWR045" H 6150 2900 50  0001 C CNN
F 1 "+3.3V" H 6165 3223 50  0000 C CNN
F 2 "" H 6150 3050 50  0001 C CNN
F 3 "" H 6150 3050 50  0001 C CNN
	1    6150 3050
	-1   0    0    1   
$EndComp
Wire Wire Line
	6150 3050 6150 3000
Wire Wire Line
	6150 3000 5800 3000
Wire Wire Line
	5800 3000 5800 2950
Connection ~ 6150 3000
Wire Wire Line
	5700 2950 5700 3050
NoConn ~ 3300 3400
Text GLabel 4750 1500 0    50   Input ~ 0
IO33
$Comp
L Connector:Conn_01x04_Male J?
U 1 1 5E08AE94
P 10300 1300
AR Path="/5E08AE94" Ref="J?"  Part="1" 
AR Path="/5E03BFDE/5E08AE94" Ref="J21"  Part="1" 
F 0 "J21" H 10408 1581 50  0000 C CNN
F 1 "grove" H 10408 1490 50  0000 C CNN
F 2 "Connector_JST:JST_PH_B4B-PH-K_1x04_P2.00mm_Vertical" H 10300 1300 50  0001 C CNN
F 3 "~" H 10300 1300 50  0001 C CNN
	1    10300 1300
	1    0    0    -1  
$EndComp
$Comp
L power:GND #PWR?
U 1 1 5E08AE9A
P 10650 1550
AR Path="/5E08AE9A" Ref="#PWR?"  Part="1" 
AR Path="/5E03BFDE/5E08AE9A" Ref="#PWR061"  Part="1" 
F 0 "#PWR061" H 10650 1300 50  0001 C CNN
F 1 "GND" H 10655 1377 50  0000 C CNN
F 2 "" H 10650 1550 50  0001 C CNN
F 3 "" H 10650 1550 50  0001 C CNN
	1    10650 1550
	-1   0    0    -1  
$EndComp
$Comp
L power:+3.3V #PWR?
U 1 1 5E08AEA0
P 10600 1150
AR Path="/5E08AEA0" Ref="#PWR?"  Part="1" 
AR Path="/5E03BFDE/5E08AEA0" Ref="#PWR058"  Part="1" 
F 0 "#PWR058" H 10600 1000 50  0001 C CNN
F 1 "+3.3V" H 10615 1323 50  0000 C CNN
F 2 "" H 10600 1150 50  0001 C CNN
F 3 "" H 10600 1150 50  0001 C CNN
	1    10600 1150
	1    0    0    -1  
$EndComp
Text GLabel 10750 1500 2    50   Input ~ 0
IO21
Text GLabel 10750 1400 2    50   Input ~ 0
IO22
Wire Wire Line
	10500 1400 10750 1400
Wire Wire Line
	10750 1500 10500 1500
Wire Wire Line
	10650 1550 10650 1200
Wire Wire Line
	10650 1200 10500 1200
Wire Wire Line
	10500 1300 10600 1300
Wire Wire Line
	10600 1300 10600 1150
Text GLabel 9450 3100 0    50   Input ~ 0
IO21
$Comp
L Connector:Conn_01x01_Female J?
U 1 1 5E08AEAF
P 9900 3100
AR Path="/5E08AEAF" Ref="J?"  Part="1" 
AR Path="/5E03BFDE/5E08AEAF" Ref="J18"  Part="1" 
F 0 "J18" H 9792 2875 50  0001 C CNN
F 1 "sew -" H 9928 3080 50  0001 L CNN
F 2 "ESP32_footprints:expansion-port-2" H 9900 3100 50  0001 C CNN
F 3 "~" H 9900 3100 50  0001 C CNN
	1    9900 3100
	1    0    0    -1  
$EndComp
Wire Wire Line
	9450 3100 9700 3100
Text GLabel 9450 3300 0    50   Input ~ 0
IO22
$Comp
L Connector:Conn_01x01_Female J?
U 1 1 5E08AEB7
P 9900 3300
AR Path="/5E08AEB7" Ref="J?"  Part="1" 
AR Path="/5E03BFDE/5E08AEB7" Ref="J19"  Part="1" 
F 0 "J19" H 9792 3075 50  0001 C CNN
F 1 "sew -" H 9928 3280 50  0001 L CNN
F 2 "ESP32_footprints:expansion-port-2" H 9900 3300 50  0001 C CNN
F 3 "~" H 9900 3300 50  0001 C CNN
	1    9900 3300
	1    0    0    -1  
$EndComp
Wire Wire Line
	9450 3300 9700 3300
Text GLabel 9450 3500 0    50   Input ~ 0
IO23
$Comp
L Connector:Conn_01x01_Female J?
U 1 1 5E08AEBF
P 9900 3500
AR Path="/5E08AEBF" Ref="J?"  Part="1" 
AR Path="/5E03BFDE/5E08AEBF" Ref="J20"  Part="1" 
F 0 "J20" H 9792 3275 50  0001 C CNN
F 1 "sew -" H 9928 3480 50  0001 L CNN
F 2 "ESP32_footprints:expansion-port-2" H 9900 3500 50  0001 C CNN
F 3 "~" H 9900 3500 50  0001 C CNN
	1    9900 3500
	1    0    0    -1  
$EndComp
Wire Wire Line
	9450 3500 9700 3500
$Comp
L power:GND #PWR?
U 1 1 5E08AEC6
P 9400 2550
AR Path="/5E08AEC6" Ref="#PWR?"  Part="1" 
AR Path="/5E03BFDE/5E08AEC6" Ref="#PWR056"  Part="1" 
F 0 "#PWR056" H 9400 2300 50  0001 C CNN
F 1 "GND" H 9405 2377 50  0000 C CNN
F 2 "" H 9400 2550 50  0001 C CNN
F 3 "" H 9400 2550 50  0001 C CNN
	1    9400 2550
	0    1    -1   0   
$EndComp
$Comp
L Connector:Conn_01x01_Female J?
U 1 1 5E08AEDD
P 9900 2800
AR Path="/5E08AEDD" Ref="J?"  Part="1" 
AR Path="/5E03BFDE/5E08AEDD" Ref="J17"  Part="1" 
F 0 "J17" H 9792 2575 50  0001 C CNN
F 1 "sew -" H 9928 2780 50  0001 L CNN
F 2 "ESP32_footprints:expansion-port-2x2" H 9900 2800 50  0001 C CNN
F 3 "~" H 9900 2800 50  0001 C CNN
	1    9900 2800
	1    0    0    -1  
$EndComp
$Comp
L power:+3.3V #PWR?
U 1 1 5E08AEEE
P 9400 2800
AR Path="/5E08AEEE" Ref="#PWR?"  Part="1" 
AR Path="/5E03BFDE/5E08AEEE" Ref="#PWR057"  Part="1" 
F 0 "#PWR057" H 9400 2650 50  0001 C CNN
F 1 "+3.3V" H 9415 2973 50  0000 C CNN
F 2 "" H 9400 2800 50  0001 C CNN
F 3 "" H 9400 2800 50  0001 C CNN
	1    9400 2800
	0    -1   -1   0   
$EndComp
Text Notes 550  750  0    157  ~ 0
LEDS
Text Notes 4400 750  0    157  ~ 0
LEDS - ADDRESSABLE
Text Notes 550  2800 0    157  ~ 0
SWITCH
Text Notes 4400 2800 0    157  ~ 0
VIBRATION
Text Notes 9050 750  0    157  ~ 0
EXPANSION PORTS
Text Notes 7100 2800 0    157  ~ 0
LIGHT SENSOR
Wire Notes Line
	9000 500  9000 4200
Wire Notes Line
	4300 500  4300 4200
Wire Notes Line
	6850 2500 6850 4200
Wire Notes Line
	500  4200 11250 4200
$Comp
L Connector:Conn_01x04_Male J?
U 1 1 5DEB8E65
P 10300 2250
AR Path="/5DEB8E65" Ref="J?"  Part="1" 
AR Path="/5E03BFDE/5DEB8E65" Ref="J22"  Part="1" 
F 0 "J22" H 10408 2531 50  0000 C CNN
F 1 "grove" H 10408 2440 50  0000 C CNN
F 2 "Connector_JST:JST_PH_B4B-PH-K_1x04_P2.00mm_Vertical" H 10300 2250 50  0001 C CNN
F 3 "~" H 10300 2250 50  0001 C CNN
	1    10300 2250
	1    0    0    -1  
$EndComp
$Comp
L power:GND #PWR?
U 1 1 5DEB8E6F
P 10650 2500
AR Path="/5DEB8E6F" Ref="#PWR?"  Part="1" 
AR Path="/5E03BFDE/5DEB8E6F" Ref="#PWR062"  Part="1" 
F 0 "#PWR062" H 10650 2250 50  0001 C CNN
F 1 "GND" H 10655 2327 50  0000 C CNN
F 2 "" H 10650 2500 50  0001 C CNN
F 3 "" H 10650 2500 50  0001 C CNN
	1    10650 2500
	-1   0    0    -1  
$EndComp
$Comp
L power:+3.3V #PWR?
U 1 1 5DEB8E79
P 10600 2100
AR Path="/5DEB8E79" Ref="#PWR?"  Part="1" 
AR Path="/5E03BFDE/5DEB8E79" Ref="#PWR059"  Part="1" 
F 0 "#PWR059" H 10600 1950 50  0001 C CNN
F 1 "+3.3V" H 10615 2273 50  0000 C CNN
F 2 "" H 10600 2100 50  0001 C CNN
F 3 "" H 10600 2100 50  0001 C CNN
	1    10600 2100
	1    0    0    -1  
$EndComp
Text GLabel 10750 2450 2    50   Input ~ 0
IO32
Text GLabel 10750 2350 2    50   Input ~ 0
IO33
Wire Wire Line
	10500 2350 10750 2350
Wire Wire Line
	10750 2450 10500 2450
Wire Wire Line
	10650 2500 10650 2150
Wire Wire Line
	10650 2150 10500 2150
Wire Wire Line
	10500 2250 10600 2250
Wire Wire Line
	10600 2250 10600 2100
$Comp
L Connector:Conn_01x04_Male J?
U 1 1 5DEBE493
P 10300 3250
AR Path="/5DEBE493" Ref="J?"  Part="1" 
AR Path="/5E03BFDE/5DEBE493" Ref="J23"  Part="1" 
F 0 "J23" H 10408 3531 50  0000 C CNN
F 1 "grove" H 10408 3440 50  0000 C CNN
F 2 "Connector_JST:JST_PH_B4B-PH-K_1x04_P2.00mm_Vertical" H 10300 3250 50  0001 C CNN
F 3 "~" H 10300 3250 50  0001 C CNN
	1    10300 3250
	1    0    0    -1  
$EndComp
$Comp
L power:GND #PWR?
U 1 1 5DEBE49D
P 10650 3500
AR Path="/5DEBE49D" Ref="#PWR?"  Part="1" 
AR Path="/5E03BFDE/5DEBE49D" Ref="#PWR063"  Part="1" 
F 0 "#PWR063" H 10650 3250 50  0001 C CNN
F 1 "GND" H 10655 3327 50  0000 C CNN
F 2 "" H 10650 3500 50  0001 C CNN
F 3 "" H 10650 3500 50  0001 C CNN
	1    10650 3500
	-1   0    0    -1  
$EndComp
$Comp
L power:+3.3V #PWR?
U 1 1 5DEBE4A7
P 10600 3100
AR Path="/5DEBE4A7" Ref="#PWR?"  Part="1" 
AR Path="/5E03BFDE/5DEBE4A7" Ref="#PWR060"  Part="1" 
F 0 "#PWR060" H 10600 2950 50  0001 C CNN
F 1 "+3.3V" H 10615 3273 50  0000 C CNN
F 2 "" H 10600 3100 50  0001 C CNN
F 3 "" H 10600 3100 50  0001 C CNN
	1    10600 3100
	1    0    0    -1  
$EndComp
Text GLabel 10750 3450 2    50   Input ~ 0
IO25
Text GLabel 10750 3350 2    50   Input ~ 0
IO26
Wire Wire Line
	10500 3350 10750 3350
Wire Wire Line
	10750 3450 10500 3450
Wire Wire Line
	10650 3500 10650 3150
Wire Wire Line
	10650 3150 10500 3150
Wire Wire Line
	10500 3250 10600 3250
Wire Wire Line
	10600 3250 10600 3100
Wire Wire Line
	9400 2800 9700 2800
$Comp
L Connector:Conn_01x01_Female J?
U 1 1 5E08AECC
P 9900 2550
AR Path="/5E08AECC" Ref="J?"  Part="1" 
AR Path="/5E03BFDE/5E08AECC" Ref="J16"  Part="1" 
F 0 "J16" H 9792 2325 50  0001 C CNN
F 1 "sew -" H 9928 2530 50  0001 L CNN
F 2 "ESP32_footprints:expansion-port-4" H 9900 2550 50  0001 C CNN
F 3 "~" H 9900 2550 50  0001 C CNN
	1    9900 2550
	1    0    0    -1  
$EndComp
Wire Wire Line
	9400 2550 9700 2550
Wire Wire Line
	5550 1500 5600 1500
$Comp
L LED:WS2812B D?
U 1 1 5E08ACA0
P 5250 1500
AR Path="/5E08ACA0" Ref="D?"  Part="1" 
AR Path="/5E03BFDE/5E08ACA0" Ref="D8"  Part="1" 
F 0 "D8" H 5594 1546 50  0000 L CNN
F 1 "WS2812B" H 5594 1455 50  0000 L CNN
F 2 "LED_SMD:LED_WS2812B_PLCC4_5.0x5.0mm_P3.2mm" H 5300 1200 50  0001 L TNN
F 3 "https://cdn-shop.adafruit.com/datasheets/WS2812B.pdf" H 5350 1125 50  0001 L TNN
	1    5250 1500
	1    0    0    -1  
$EndComp
Wire Wire Line
	6250 1150 6250 1200
Wire Wire Line
	6550 1500 6600 1500
Wire Wire Line
	7250 1150 7250 1200
Wire Wire Line
	8250 1150 8250 1200
Wire Wire Line
	7550 1500 7600 1500
Wire Wire Line
	8550 1500 8600 1500
Wire Wire Line
	5250 1800 5250 1850
Wire Wire Line
	5250 1150 5250 1200
$Comp
L power:GND #PWR?
U 1 1 5E08ACA6
P 5250 1150
AR Path="/5E08ACA6" Ref="#PWR?"  Part="1" 
AR Path="/5E03BFDE/5E08ACA6" Ref="#PWR041"  Part="1" 
F 0 "#PWR041" H 5250 900 50  0001 C CNN
F 1 "GND" H 5255 977 50  0000 C CNN
F 2 "" H 5250 1150 50  0001 C CNN
F 3 "" H 5250 1150 50  0001 C CNN
	1    5250 1150
	-1   0    0    1   
$EndComp
Wire Wire Line
	4750 1500 4900 1500
$Comp
L Connector:Conn_01x04_Female J9
U 1 1 5DE8568F
P 5100 2400
F 0 "J9" V 4946 2112 50  0000 R CNN
F 1 "4pin" V 5037 2112 50  0000 R CNN
F 2 "ESP32_footprints:sewable-12mm_4pin" H 5100 2400 50  0001 C CNN
F 3 "~" H 5100 2400 50  0001 C CNN
	1    5100 2400
	0    -1   1    0   
$EndComp
Wire Wire Line
	4900 1500 4900 2100
Wire Wire Line
	4900 2100 5100 2100
Wire Wire Line
	5100 2100 5100 2200
Connection ~ 4900 1500
Wire Wire Line
	4900 1500 4950 1500
Wire Wire Line
	5300 2200 5300 2100
Wire Wire Line
	5300 2100 5600 2100
Wire Wire Line
	5600 2100 5600 1500
Connection ~ 5600 1500
Wire Wire Line
	5600 1500 5900 1500
Wire Wire Line
	5000 2200 5000 2150
Wire Wire Line
	5000 2150 5600 2150
$Comp
L power:GND #PWR?
U 1 1 5DEB2148
P 5600 2150
AR Path="/5DEB2148" Ref="#PWR?"  Part="1" 
AR Path="/5E03BFDE/5DEB2148" Ref="#PWR043"  Part="1" 
F 0 "#PWR043" H 5600 1900 50  0001 C CNN
F 1 "GND" H 5605 1977 50  0000 C CNN
F 2 "" H 5600 2150 50  0001 C CNN
F 3 "" H 5600 2150 50  0001 C CNN
	1    5600 2150
	0    -1   -1   0   
$EndComp
$Comp
L power:+3.3V #PWR?
U 1 1 5E08ACAC
P 5250 1850
AR Path="/5E08ACAC" Ref="#PWR?"  Part="1" 
AR Path="/5E03BFDE/5E08ACAC" Ref="#PWR042"  Part="1" 
F 0 "#PWR042" H 5250 1700 50  0001 C CNN
F 1 "+3.3V" H 5265 2023 50  0000 C CNN
F 2 "" H 5250 1850 50  0001 C CNN
F 3 "" H 5250 1850 50  0001 C CNN
	1    5250 1850
	0    1    1    0   
$EndComp
Wire Wire Line
	5250 1850 5250 1950
Wire Wire Line
	5250 1950 5200 1950
Wire Wire Line
	5200 1950 5200 2200
Connection ~ 5250 1850
$Comp
L Connector:Conn_01x04_Female J12
U 1 1 5DEC417B
P 6100 2400
F 0 "J12" V 5946 2112 50  0000 R CNN
F 1 "4pin" V 6037 2112 50  0000 R CNN
F 2 "ESP32_footprints:sewable-12mm_4pin" H 6100 2400 50  0001 C CNN
F 3 "~" H 6100 2400 50  0001 C CNN
	1    6100 2400
	0    -1   1    0   
$EndComp
Wire Wire Line
	5900 1500 5900 2100
Wire Wire Line
	5900 2100 6100 2100
Wire Wire Line
	6100 2100 6100 2200
Wire Wire Line
	6300 2200 6300 2100
Wire Wire Line
	6300 2100 6600 2100
Wire Wire Line
	6600 2100 6600 1500
$Comp
L power:GND #PWR?
U 1 1 5DEC418D
P 6600 2150
AR Path="/5DEC418D" Ref="#PWR?"  Part="1" 
AR Path="/5E03BFDE/5DEC418D" Ref="#PWR048"  Part="1" 
F 0 "#PWR048" H 6600 1900 50  0001 C CNN
F 1 "GND" H 6605 1977 50  0000 C CNN
F 2 "" H 6600 2150 50  0001 C CNN
F 3 "" H 6600 2150 50  0001 C CNN
	1    6600 2150
	0    -1   -1   0   
$EndComp
$Comp
L power:+3.3V #PWR?
U 1 1 5DEC4197
P 6250 1850
AR Path="/5DEC4197" Ref="#PWR?"  Part="1" 
AR Path="/5E03BFDE/5DEC4197" Ref="#PWR047"  Part="1" 
F 0 "#PWR047" H 6250 1700 50  0001 C CNN
F 1 "+3.3V" H 6265 2023 50  0000 C CNN
F 2 "" H 6250 1850 50  0001 C CNN
F 3 "" H 6250 1850 50  0001 C CNN
	1    6250 1850
	0    1    1    0   
$EndComp
Wire Wire Line
	6250 1850 6250 1950
Wire Wire Line
	6250 1950 6200 1950
Wire Wire Line
	6200 1950 6200 2200
Connection ~ 5900 1500
Wire Wire Line
	5900 1500 5950 1500
Connection ~ 6600 1500
Wire Wire Line
	6600 1500 6900 1500
Wire Wire Line
	7250 1800 7250 1850
$Comp
L Connector:Conn_01x04_Female J13
U 1 1 5DECA8E0
P 7100 2400
F 0 "J13" V 6946 2112 50  0000 R CNN
F 1 "4pin" V 7037 2112 50  0000 R CNN
F 2 "ESP32_footprints:sewable-12mm_4pin" H 7100 2400 50  0001 C CNN
F 3 "~" H 7100 2400 50  0001 C CNN
	1    7100 2400
	0    -1   1    0   
$EndComp
Wire Wire Line
	6900 1500 6900 2100
Wire Wire Line
	6900 2100 7100 2100
Wire Wire Line
	7100 2100 7100 2200
Wire Wire Line
	7300 2200 7300 2100
Wire Wire Line
	7300 2100 7600 2100
Wire Wire Line
	7600 2100 7600 1500
Wire Wire Line
	7000 2200 7000 2150
Wire Wire Line
	7000 2150 7600 2150
$Comp
L power:GND #PWR?
U 1 1 5DECA8F2
P 7600 2150
AR Path="/5DECA8F2" Ref="#PWR?"  Part="1" 
AR Path="/5E03BFDE/5DECA8F2" Ref="#PWR052"  Part="1" 
F 0 "#PWR052" H 7600 1900 50  0001 C CNN
F 1 "GND" H 7605 1977 50  0000 C CNN
F 2 "" H 7600 2150 50  0001 C CNN
F 3 "" H 7600 2150 50  0001 C CNN
	1    7600 2150
	0    -1   -1   0   
$EndComp
$Comp
L power:+3.3V #PWR?
U 1 1 5DECA8FC
P 7250 1850
AR Path="/5DECA8FC" Ref="#PWR?"  Part="1" 
AR Path="/5E03BFDE/5DECA8FC" Ref="#PWR050"  Part="1" 
F 0 "#PWR050" H 7250 1700 50  0001 C CNN
F 1 "+3.3V" H 7265 2023 50  0000 C CNN
F 2 "" H 7250 1850 50  0001 C CNN
F 3 "" H 7250 1850 50  0001 C CNN
	1    7250 1850
	0    1    1    0   
$EndComp
Wire Wire Line
	7250 1850 7250 1950
Wire Wire Line
	7250 1950 7200 1950
Wire Wire Line
	7200 1950 7200 2200
Connection ~ 7250 1850
$Comp
L Connector:Conn_01x04_Female J15
U 1 1 5DECA90A
P 8100 2400
F 0 "J15" V 7946 2112 50  0000 R CNN
F 1 "4pin" V 8037 2112 50  0000 R CNN
F 2 "ESP32_footprints:sewable-12mm_4pin" H 8100 2400 50  0001 C CNN
F 3 "~" H 8100 2400 50  0001 C CNN
	1    8100 2400
	0    -1   1    0   
$EndComp
Wire Wire Line
	7900 1500 7900 2100
Wire Wire Line
	7900 2100 8100 2100
Wire Wire Line
	8100 2100 8100 2200
Wire Wire Line
	8300 2200 8300 2100
Wire Wire Line
	8300 2100 8600 2100
Wire Wire Line
	8600 2100 8600 1500
Wire Wire Line
	8000 2200 8000 2150
Wire Wire Line
	8000 2150 8600 2150
$Comp
L power:GND #PWR?
U 1 1 5DECA91C
P 8600 2150
AR Path="/5DECA91C" Ref="#PWR?"  Part="1" 
AR Path="/5E03BFDE/5DECA91C" Ref="#PWR055"  Part="1" 
F 0 "#PWR055" H 8600 1900 50  0001 C CNN
F 1 "GND" H 8605 1977 50  0000 C CNN
F 2 "" H 8600 2150 50  0001 C CNN
F 3 "" H 8600 2150 50  0001 C CNN
	1    8600 2150
	0    -1   -1   0   
$EndComp
$Comp
L power:+3.3V #PWR?
U 1 1 5DECA926
P 8250 1850
AR Path="/5DECA926" Ref="#PWR?"  Part="1" 
AR Path="/5E03BFDE/5DECA926" Ref="#PWR054"  Part="1" 
F 0 "#PWR054" H 8250 1700 50  0001 C CNN
F 1 "+3.3V" H 8265 2023 50  0000 C CNN
F 2 "" H 8250 1850 50  0001 C CNN
F 3 "" H 8250 1850 50  0001 C CNN
	1    8250 1850
	0    1    1    0   
$EndComp
Wire Wire Line
	8250 1850 8250 1950
Wire Wire Line
	8250 1950 8200 1950
Wire Wire Line
	8200 1950 8200 2200
Connection ~ 6900 1500
Wire Wire Line
	6900 1500 6950 1500
Connection ~ 7600 1500
Wire Wire Line
	7600 1500 7900 1500
Connection ~ 7900 1500
Wire Wire Line
	7900 1500 7950 1500
Connection ~ 8600 1500
Wire Wire Line
	8600 1500 8750 1500
Wire Notes Line
	500  2500 9000 2500
Wire Wire Line
	6250 1850 6250 1800
Connection ~ 6250 1850
Wire Wire Line
	8250 1850 8250 1800
Connection ~ 8250 1850
Wire Wire Line
	1000 3300 1000 3600
Wire Wire Line
	1000 3600 1150 3600
Wire Wire Line
	1350 3600 1350 3700
Wire Wire Line
	1450 3700 1450 3600
Wire Wire Line
	1450 3600 1650 3600
Wire Wire Line
	1750 3600 1750 3300
Wire Wire Line
	2700 3300 2700 3600
Wire Wire Line
	2700 3600 3000 3600
Wire Wire Line
	3200 3600 3200 3700
Wire Wire Line
	3300 3700 3300 3600
Wire Wire Line
	3300 3600 3500 3600
Wire Wire Line
	3650 3600 3650 3200
$Comp
L Connector:Conn_01x02_Female J5
U 1 1 5DEFEB8B
P 1400 2350
F 0 "J5" V 1246 2162 50  0000 R CNN
F 1 "2pin" V 1337 2162 50  0000 R CNN
F 2 "ESP32_footprints:sewable_6x15mm_2pin" H 1400 2350 50  0001 C CNN
F 3 "~" H 1400 2350 50  0001 C CNN
	1    1400 2350
	0    -1   1    0   
$EndComp
Wire Wire Line
	1050 2000 1100 2000
Wire Wire Line
	1800 2000 1850 2000
Wire Wire Line
	1850 2000 1850 2150
Wire Wire Line
	1850 2150 1500 2150
Connection ~ 1850 2000
Wire Wire Line
	1850 2000 1900 2000
Wire Wire Line
	1400 2150 1100 2150
Wire Wire Line
	1100 2150 1100 2000
Connection ~ 1100 2000
Wire Wire Line
	1100 2000 1150 2000
$Comp
L Connector:Conn_01x02_Female J7
U 1 1 5DF0D9D6
P 3100 2350
F 0 "J7" V 2946 2162 50  0000 R CNN
F 1 "2pin" V 3037 2162 50  0000 R CNN
F 2 "ESP32_footprints:sewable_6x15mm_2pin" H 3100 2350 50  0001 C CNN
F 3 "~" H 3100 2350 50  0001 C CNN
	1    3100 2350
	0    -1   1    0   
$EndComp
Wire Wire Line
	3550 2000 3550 2150
Wire Wire Line
	3550 2150 3200 2150
Wire Wire Line
	3100 2150 2800 2150
Wire Wire Line
	2800 2150 2800 2000
$Comp
L Connector:Conn_01x02_Female J6
U 1 1 5DF16AD9
P 3100 1450
F 0 "J6" V 2946 1262 50  0000 R CNN
F 1 "2pin" V 3037 1262 50  0000 R CNN
F 2 "ESP32_footprints:sewable_6x15mm_2pin" H 3100 1450 50  0001 C CNN
F 3 "~" H 3100 1450 50  0001 C CNN
	1    3100 1450
	0    -1   1    0   
$EndComp
Wire Wire Line
	3550 1100 3550 1250
Wire Wire Line
	3550 1250 3200 1250
Wire Wire Line
	3100 1250 2800 1250
Wire Wire Line
	2800 1250 2800 1100
$Comp
L Connector:Conn_01x02_Female J4
U 1 1 5DF1F8CD
P 1400 1450
F 0 "J4" V 1246 1262 50  0000 R CNN
F 1 "2pin" V 1337 1262 50  0000 R CNN
F 2 "ESP32_footprints:sewable_6x15mm_2pin" H 1400 1450 50  0001 C CNN
F 3 "~" H 1400 1450 50  0001 C CNN
	1    1400 1450
	0    -1   1    0   
$EndComp
Wire Wire Line
	1850 1100 1850 1250
Wire Wire Line
	1850 1250 1500 1250
Wire Wire Line
	1400 1250 1100 1250
Wire Wire Line
	1100 1250 1100 1100
$Comp
L Connector:Conn_01x06_Female J10
U 1 1 5DF475EB
P 5600 4100
F 0 "J10" V 5446 3712 50  0000 R CNN
F 1 "6pin" V 5537 3712 50  0000 R CNN
F 2 "ESP32_footprints:sewable_20mm_6pin" H 5600 4100 50  0001 C CNN
F 3 "~" H 5600 4100 50  0001 C CNN
	1    5600 4100
	0    1    1    0   
$EndComp
Wire Wire Line
	5800 3900 5800 3550
Wire Wire Line
	5800 3550 6400 3550
Wire Wire Line
	6400 3550 6400 3000
Wire Wire Line
	6150 3000 6400 3000
Connection ~ 8000 3500
Wire Wire Line
	8000 3500 8100 3500
$Comp
L Device:R R?
U 1 1 5DF82FD7
P 8250 3500
AR Path="/5DF82FD7" Ref="R?"  Part="1" 
AR Path="/5E03BFDE/5DF82FD7" Ref="R14"  Part="1" 
F 0 "R14" H 8180 3454 50  0000 R CNN
F 1 "10k" H 8180 3545 50  0000 R CNN
F 2 "Resistor_SMD:R_1206_3216Metric_Pad1.42x1.75mm_HandSolder" V 8180 3500 50  0001 C CNN
F 3 "~" H 8250 3500 50  0001 C CNN
F 4 "311-10.0KFRCT-ND" H 8250 3500 50  0001 C CNN "SKU"
	1    8250 3500
	0    1    1    0   
$EndComp
$Comp
L Connector:Conn_01x06_Female J8
U 1 1 5E0490C2
P 3200 3900
F 0 "J8" V 3046 3512 50  0000 R CNN
F 1 "6pin" V 3137 3512 50  0000 R CNN
F 2 "ESP32_footprints:sewable_20mm_6pin" H 3200 3900 50  0001 C CNN
F 3 "~" H 3200 3900 50  0001 C CNN
	1    3200 3900
	0    -1   1    0   
$EndComp
$Comp
L Connector:Conn_01x06_Female J3
U 1 1 5E049531
P 1350 3900
F 0 "J3" V 1196 3512 50  0000 R CNN
F 1 "6pin" V 1287 3512 50  0000 R CNN
F 2 "ESP32_footprints:sewable_20mm_6pin" H 1350 3900 50  0001 C CNN
F 3 "~" H 1350 3900 50  0001 C CNN
	1    1350 3900
	0    -1   1    0   
$EndComp
Wire Wire Line
	3000 3700 3000 3600
Connection ~ 3000 3600
Wire Wire Line
	3000 3600 3200 3600
Wire Wire Line
	3500 3700 3500 3600
Connection ~ 3500 3600
Wire Wire Line
	3500 3600 3650 3600
Wire Wire Line
	1650 3700 1650 3600
Connection ~ 1650 3600
Wire Wire Line
	1650 3600 1750 3600
Wire Wire Line
	1150 3700 1150 3600
Connection ~ 1150 3600
Wire Wire Line
	1150 3600 1350 3600
$Comp
L Connector:Conn_01x06_Female J14
U 1 1 5DF6CAA8
P 7950 4100
F 0 "J14" V 7796 3712 50  0000 R CNN
F 1 "6pin" V 7887 3712 50  0000 R CNN
F 2 "ESP32_footprints:sewable_20mm_6pin" H 7950 4100 50  0001 C CNN
F 3 "~" H 7950 4100 50  0001 C CNN
	1    7950 4100
	0    1    1    0   
$EndComp
Wire Wire Line
	8000 3650 7950 3650
Wire Wire Line
	7950 3650 7950 3900
Wire Wire Line
	8000 3500 8000 3650
Wire Wire Line
	8500 3500 8500 3750
Wire Wire Line
	8500 3750 7750 3750
Wire Wire Line
	7750 3750 7750 3900
Wire Wire Line
	8150 3900 8150 3850
Wire Wire Line
	8150 3850 8600 3850
$Comp
L power:+3.3V #PWR?
U 1 1 5DECE44C
P 8600 3850
AR Path="/5DECE44C" Ref="#PWR?"  Part="1" 
AR Path="/5E03BFDE/5DECE44C" Ref="#PWR0101"  Part="1" 
F 0 "#PWR0101" H 8600 3700 50  0001 C CNN
F 1 "+3.3V" H 8615 4023 50  0000 C CNN
F 2 "" H 8600 3850 50  0001 C CNN
F 3 "" H 8600 3850 50  0001 C CNN
	1    8600 3850
	0    1    1    0   
$EndComp
Wire Wire Line
	5400 3550 5700 3550
Wire Wire Line
	5400 3900 5400 3550
Wire Wire Line
	5700 3450 5700 3550
Wire Wire Line
	5300 3350 5450 3350
Connection ~ 5450 3350
Wire Wire Line
	5450 3350 5500 3350
Connection ~ 5700 3550
Wire Wire Line
	5700 3550 5700 3600
$Comp
L power:GND #PWR?
U 1 1 5DF2F805
P 8500 3500
AR Path="/5DF2F805" Ref="#PWR?"  Part="1" 
AR Path="/5E03BFDE/5DF2F805" Ref="#PWR0102"  Part="1" 
F 0 "#PWR0102" H 8500 3250 50  0001 C CNN
F 1 "GND" H 8505 3327 50  0000 C CNN
F 2 "" H 8500 3500 50  0001 C CNN
F 3 "" H 8500 3500 50  0001 C CNN
	1    8500 3500
	0    -1   1    0   
$EndComp
Connection ~ 8500 3500
Wire Wire Line
	6000 2150 6600 2150
Wire Wire Line
	6000 2200 6000 2150
Wire Wire Line
	5600 3800 5600 3900
Wire Wire Line
	5450 3350 5450 3800
Wire Wire Line
	5450 3800 5600 3800
$Comp
L Connector:Conn_01x02_Male J?
U 1 1 5E08ACC2
P 5800 2750
AR Path="/5E08ACC2" Ref="J?"  Part="1" 
AR Path="/5E03BFDE/5E08ACC2" Ref="J11"  Part="1" 
F 0 "J11" H 5908 2931 50  0001 C CNN
F 1 "Vibration Motor" V 5908 2794 50  0000 L CNN
F 2 "ESP32_footprints:2-smd-pad" H 5800 2750 50  0001 C CNN
F 3 "~" H 5800 2750 50  0001 C CNN
	1    5800 2750
	0    1    1    0   
$EndComp
$EndSCHEMATC
